gerrydito - Regresi logistik dengan R
…
Salah satu alat yang digunakan untuk melakukan evaluasi performa prediksi berdasarkan prediksi peluang adalah kurva ROC. Berikut adalah sintaksnya

kurva_roc <- pred_reglog %>% 
              roc_curve(truth = truth,estimate_prob)
kurva_roc 

# A tibble: 9,044 × 3
   .threshold specificity sensitivity
        <dbl>       <dbl>       <dbl>
 1 -Inf          0                  1
 2    0.00229    0                  1
 3    0.00261    0.000125           1
 4    0.00271    0.000250           1
 5    0.00273    0.000376           1
 6    0.00294    0.000501           1
 7    0.00305    0.000626           1
 8    0.00316    0.000751           1
 9    0.00318    0.000877           1
10    0.00320    0.00100            1
# ℹ 9,034 more rows
…
Threshold Optimal

Selanjutnya kita akan mencoba mendapatkan threshold optimal berdasarkan sensitivity dan specificity menggunakan Youden’s J statistic yang didefinisikan sebagai berikut

\[
\text{Youden's J statistic} = \text{sensitivity} + \text{specificity}-1
\]

Semakin mendekati 1 nilainya maka semakin baik thresholdnya dan semakin nilainya mendekati 0 semakin buruk thresholdnya. Jika kita terapkan pada sintaks adalah sebagai berikut.

kurva_roc %>% 
  mutate(youden_index=sensitivity+specificity-1)

# A tibble: 9,044 × 4
   .threshold specificity sensitivity youden_index
        <dbl>       <dbl>       <dbl>        <dbl>
 1 -Inf          0                  1     0       
 2    0.00229    0                  1     0       
 3    0.00261    0.000125           1     0.000125
 4    0.00271    0.000250           1     0.000250
 5    0.00273    0.000376           1     0.000376
 6    0.00294    0.000501           1     0.000501
 7    0.00305    0.000626           1     0.000626
 8    0.00316    0.000751           1     0.000751
 9    0.00318    0.000877           1     0.000877
10    0.00320    0.00100            1     0.00100 
# ℹ 9,034 more rows
…
