gerrydito - Statistical Machine Learning dengan tidymodels
…
fungsi all_numeric_predictors() menandakan bahwa variabel yang akan direduksi adalah semua variabel prediktor kontinu

num_comp=3 berarti kita akan mereduksi dimensi menjadi 3 dimensi

options = list(center = TRUE,scale. = TRUE) berarti sebelum direduksi dimensi variabel asalnya kita rubah menjadi variabel-variabel yang memiliki rata-rata yang mendekati 0 dan standar deviasi mendekati 1.

Kemudian, kita bisa memeriksa bagaimana hasi praproses dengan menggunakan fungsi prep dan bake seperti dibawah ini

## memeriksa hasil praproses
basic_prepoc %>% 
  prep() %>% 
  bake(new_data = NULL)

# A tibble: 1,000 × 17
   checking_status credit_history              purpose savings_status employment
   <fct>           <fct>                       <fct>   <fct>          <fct>     
 1 '<0'            'critical/other existing c… radio/… 'no known sav… '>=7'     
 2 '0<=X<200'      'existing paid'             radio/… '<100'         '1<=X<4'  
 3 'no checking'   'critical/other existing c… educat… '<100'         '4<=X<7'  
 4 '<0'            'existing paid'             furnit… '<100'         '4<=X<7'  
 5 '<0'            'delayed previously'        'new c… '<100'         '1<=X<4'  
 6 'no checking'   'existing paid'             educat… 'no known sav… '1<=X<4'  
 7 'no checking'   'existing paid'             furnit… '500<=X<1000'  '>=7'     
 8 '0<=X<200'      'existing paid'             'used … '<100'         '1<=X<4'  
 9 'no checking'   'existing paid'             radio/… '>=1000'       '4<=X<7'  
10 '0<=X<200'      'critical/other existing c… 'new c… '<100'         unemployed
# ℹ 990 more rows
# ℹ 12 more variables: personal_status <fct>, other_parties <fct>,
#   property_magnitude <fct>, other_payment_plans <fct>, housing <fct>,
#   job <fct>, own_telephone <fct>, foreign_worker <fct>, class <fct>,
#   PC1 <dbl>, PC2 <dbl>, PC3 <dbl>
…
fungsi fit digunakan untuk menjalankan training.

Model Evaluation

Prediksi Testing Data

Berikut adalah sintaks mendapatkan prediksi testing data dalam bentuk kategori (factor)

pred_tree_mod <- tree_mod_trained %>% 
                  predict(new_data = test_df,type = "class")
                  
pred_tree_mod 

# A tibble: 200 × 1
   .pred_class
   <fct>      
 1 bad        
 2 good       
 3 bad        
 4 good       
 5 bad        
 6 good       
 7 good       
 8 good       
 9 good       
10 good       
# ℹ 190 more rows

type = "class" argumen untuk mendapatkan prediksi dalam bentuk kategori (factor)

Pada dasarnya hasil prediksi dari tree berbentuk peluang, secara otomatis diubah menjadi kategori variabel respon dengan threshold=0.5

Berikut adalah sintaks mendapatkan prediksi testing data dalam bentuk peluang

prob_tree_mod <- tree_mod_trained %>% 
                  predict(new_data = test_df,type = "prob")
prob_tree_mod

# A tibble: 200 × 2
   .pred_bad .pred_good
       <dbl>      <dbl>
 1     0.712      0.288
 2     0.138      0.862
 3     0.712      0.288
 4     0.26       0.74 
 5     0.712      0.288
 6     0.229      0.771
 7     0.138      0.862
 8     0.26       0.74 
 9     0.138      0.862
10     0.138      0.862
# ℹ 190 more rows

type = "prob" argumen untuk mendapatkan prediksi dalam bentuk [kategori (factor) peluang

Confussion Matrix

Berikut adalah sintaks untuk menambahkan kolom variabel respon dari testing data

pred_tree_mod <- pred_tree_mod %>% 
                 #menambahkan kolom truth
                 mutate(truth=test_df$class)
pred_tree_mod

# A tibble: 200 × 2
   .pred_class truth
   <fct>       <fct>
 1 bad         bad  
 2 good        good 
 3 bad         bad  
 4 good        good 
 5 bad         bad  
 6 good        good 
 7 good        good 
 8 good        good 
 9 good        good 
10 good        good 
# ℹ 190 more rows
…
mod_selection_result <- rank_results(mod_selection_trained,
                                     rank_metric = "bal_accuracy") %>% 
                        custom_output()

argumen rank_metric digunakan untuk menentukan metrik apa yang digunakan sebagai ranking. Dalam hal ini metrik yang digunakan adalah balanced accuracy

fungsi custom_output digunakan untuk mengkustomisasi output yang dihasilkan. Fungsi ini bisa tidak perlu dirubah-rubah.

mod_selection_result

# A tibble: 30 × 6
   method model        .metric       mean std_err  rank
   <chr>  <chr>        <chr>        <dbl>   <dbl> <int>
 1 no     logistic_reg accuracy     0.755 0.00477     1
 2 no     logistic_reg bal_accuracy 0.682 0.00677     1
 3 no     logistic_reg f_meas       0.549 0.0107      1
 4 no     logistic_reg sensitivity  0.5   0.0165      1
 5 no     logistic_reg specificity  0.864 0.00775     1
 6 basic  logistic_reg accuracy     0.757 0.00790     2
 7 basic  logistic_reg bal_accuracy 0.679 0.0105      2
 8 basic  logistic_reg f_meas       0.543 0.0158      2
 9 basic  logistic_reg sensitivity  0.483 0.0218      2
10 basic  logistic_reg specificity  0.874 0.00971     2
# ℹ 20 more rows
…
Training data contained 1000 data points and no incomplete rows.

Model Interpretability (Explainability)

Tahap ini meruapakan tahap untuk mengerti bagaimana variabel-variabel prediktor berpengaruh terhadap prediksi berdasarkan model terbaik yang diperoleh pada tahap model selection.

Model Terbaik

Karena model terbaik adalah regresi logistik maka kita bisa menggunakan nilai koefisien dari regresi logistik untuk memahami bagaimana variabel-variabel prediktor berpengaruh terhadap prediksi.

tidy(best_mod,exponentiate=TRUE) %>% 
  mutate(across(where(is.numeric),~round(.x,3)))

# A tibble: 49 × 5
   term                                     estimate std.error statistic p.value
   <chr>                                       <dbl>     <dbl>     <dbl>   <dbl>
 1 (Intercept)                                 3.32      1.42      0.845   0.398
 2 checking_status'>=200'                      2.63      0.369     2.62    0.009
 3 checking_status'0<=X<200'                   1.46      0.218     1.72    0.085
 4 checking_status'no checking'                5.54      0.232     7.37    0    
 5 duration                                    0.973     0.009    -3.00    0.003
 6 credit_history'critical/other existing …    4.85      0.438     3.60    0    
 7 credit_history'delayed previously'          2.71      0.47      2.12    0.034
 8 credit_history'existing paid'               2.07      0.385     1.89    0.058
 9 credit_history'no credits/all paid'         1.15      0.549     0.261   0.794
10 purpose'new car'                            0.593     0.762    -0.686   0.493
# ℹ 39 more rows
…
