…
``` r
cor_mat <- cor(data_house1,method = "spearman")
cor_mat[upper.tri(cor_mat,diag = TRUE)] <- NA 
cor_df <- cor_mat   %>%
    as.data.frame() %>% 
    rownames_to_column(var = "Var1") %>%
  pivot_longer(names_to = "Var2",
               values_to = "corr",
               -Var1) %>% na.omit

cor_df %>% filter(abs(corr)>0.6) %>% arrange(desc(abs(corr)))
```

    ## # A tibble: 28 x 3
    ##    Var1         Var2          corr
    ##    <chr>        <chr>        <dbl>
    ##  1 GarageYrBlt  YearBuilt    0.893
    ##  2 X1stFlrSF    TotalBsmtSF  0.840
    ##  3 GarageArea   GarageCars   0.839
    ##  4 TotRmsAbvGrd GrLivArea    0.828
    ##  5 SalePrice    OverallQual  0.827
    ##  6 GarageYrBlt  YearRemodAdd 0.741
    ##  7 YearRemodAdd YearBuilt    0.731
    ##  8 SalePrice    GrLivArea    0.725
    ##  9 BsmtFullBath BsmtFinSF1   0.674
    ## 10 SalePrice    YearBuilt    0.670
    ## # ... with 18 more rows

``` r
cor_df %>% filter(abs(corr)<=0.6)  
```

    ## # A tibble: 638 x 3
    ##    Var1        Var2            corr
    ##    <chr>       <chr>          <dbl>
    ##  1 LotFrontage MSSubClass  -0.313  
    ##  2 LotArea     MSSubClass  -0.258  
    ##  3 OverallQual MSSubClass   0.0920 
    ##  4 OverallQual LotFrontage  0.240  
    ##  5 OverallQual LotArea      0.279  
    ##  6 OverallCond MSSubClass  -0.0854 
    ##  7 OverallCond LotFrontage -0.0691 
    ##  8 OverallCond LotArea     -0.0883 
    ##  9 OverallCond OverallQual -0.235  
    ## 10 YearBuilt   MSSubClass   0.00361
    ## # ... with 628 more rows
…
