gerrydito - Pengenalan tidyverse Part1: dplyr
…
Fungsi select

Fungsi select digunakan untuk menyeleksi kolom dari dataset yang ada

select(.data = country_data,Country,`Birth Rate`,Urban_population,GDP, `Gasoline Price`)

# A tibble: 195 × 5
   Country             `Birth Rate` Urban_population GDP        `Gasoline Price`
   <chr>                      <dbl>            <dbl> <chr>      <chr>           
 1 Afghanistan                 32.5          9797273 $19,101,3… $0.70           
 2 Albania                     11.8          1747593 $15,278,0… $1.36           
 3 Algeria                     24.3         31510100 $169,988,… $0.28           
 4 Andorra                      7.2            67873 $3,154,05… $1.51           
 5 Angola                      40.7         21061025 $94,635,4… $0.97           
 6 Antigua and Barbuda         15.3            23800 $1,727,75… $0.99           
 7 Argentina                   17.0         41339571 $449,663,… $1.10           
 8 Armenia                     14.0          1869848 $13,672,8… $0.77           
 9 Australia                   12.6         21844756 $1,392,68… $0.93           
10 Austria                      9.7          5194416 $446,314,… $1.20           
# ℹ 185 more rows

sintaks diatas dapat ditulis dalam bentuk lain yaitu

country_data %>% 
  select(Country,`Birth Rate`,Urban_population,GDP, `Gasoline Price`)

# A tibble: 195 × 5
   Country             `Birth Rate` Urban_population GDP        `Gasoline Price`
   <chr>                      <dbl>            <dbl> <chr>      <chr>           
 1 Afghanistan                 32.5          9797273 $19,101,3… $0.70           
 2 Albania                     11.8          1747593 $15,278,0… $1.36           
 3 Algeria                     24.3         31510100 $169,988,… $0.28           
 4 Andorra                      7.2            67873 $3,154,05… $1.51           
 5 Angola                      40.7         21061025 $94,635,4… $0.97           
 6 Antigua and Barbuda         15.3            23800 $1,727,75… $0.99           
 7 Argentina                   17.0         41339571 $449,663,… $1.10           
 8 Armenia                     14.0          1869848 $13,672,8… $0.77           
 9 Australia                   12.6         21844756 $1,392,68… $0.93           
10 Austria                      9.7          5194416 $446,314,… $1.20           
# ℹ 185 more rows
…
# A tibble: 2 × 2
  Country       Urban_population
  <chr>                    <dbl>
1 Liechtenstein             5464
2 Tuvalu                    7362

Sintaks diatas dapat dibaca sebagai berikut: * Step 1 menyiapkan objek data yaitu country_data * Step 2 memilih kolom Country dan Urban_population berdasarkan step 1 * Step 3 menyaring Urban_population < 10000 berdasarkan objek data pada step 2

Jika kita hilangkan step 3 maka sintaksnya akan menjadi seperti ini

country_data %>% 
  select(Country, Urban_population)

# A tibble: 195 × 2
   Country             Urban_population
   <chr>                          <dbl>
 1 Afghanistan                  9797273
 2 Albania                      1747593
 3 Algeria                     31510100
 4 Andorra                        67873
 5 Angola                      21061025
 6 Antigua and Barbuda            23800
 7 Argentina                   41339571
 8 Armenia                      1869848
 9 Australia                   21844756
10 Austria                      5194416
# ℹ 185 more rows
…
country_data %>% 
  select(Country, Urban_population) %>% 
  filter(Urban_population == 1747593)

# A tibble: 1 × 2
  Country Urban_population
  <chr>              <dbl>
1 Albania          1747593

country_data %>% 
  select(Country, Urban_population) %>% 
  filter(Urban_population > 1747593)

# A tibble: 132 × 2
   Country     Urban_population
   <chr>                  <dbl>
 1 Afghanistan          9797273
 2 Algeria             31510100
 3 Angola              21061025
 4 Argentina           41339571
 5 Armenia              1869848
 6 Australia           21844756
 7 Austria              5194416
 8 Azerbaijan           5616165
 9 Bangladesh          60987417
10 Belarus              7482982
# ℹ 122 more rows
…
Fungsi arrange

Fungsi arrange digunakan untuk mengurutkan kolom besar ke kecil atau sebaliknya.

country_data %>% 
  select(Country, Urban_population) %>% 
  filter(Urban_population > 1747593 & Urban_population <= 6084994) %>% 
  arrange(Urban_population)

# A tibble: 50 × 2
   Country                  Urban_population
   <chr>                               <dbl>
 1 Armenia                           1869848
 2 Lithuania                         1891013
 3 Gabon                             1949694
 4 Central African Republic          1982064
 5 Rwanda                            2186104
 6 Georgia                           2196476
 7 South Sudan                       2201250
 8 Mongolia                          2210626
 9 Croatia                           2328318
10 Kyrgyzstan                        2362644
# ℹ 40 more rows

jika ingin mengurutkan dari besar ke kecil cukup tambahkan desc

country_data %>% 
  select(Country, Urban_population) %>% 
  filter(Urban_population > 1747593 & Urban_population <= 6084994) %>% 
  arrange(desc(Urban_population))

# A tibble: 50 × 2
   Country    Urban_population
   <chr>                 <dbl>
 1 Lebanon             6084994
 2 Nepal               5765513
 3 Singapore           5703569
 4 Benin               5648149
 5 Honduras            5626433
 6 Azerbaijan          5616165
 7 Libya               5448597
 8 Bulgaria            5256027
 9 Austria             5194416
10 Denmark             5119978
# ℹ 40 more rows

Mengurutkan berdasarkan abjad

country_data %>% 
  select(Country, Urban_population) %>% 
  filter(Urban_population > 1747593 & Urban_population <= 6084994) %>% 
  arrange(desc(Country))

# A tibble: 50 × 2
   Country      Urban_population
   <chr>                   <dbl>
 1 Zimbabwe              4717305
 2 Uruguay               3303394
 3 Turkmenistan          3092738
 4 Togo                  3414638
 5 Tajikistan            2545477
 6 Sri Lanka             4052088
 7 South Sudan           2201250
 8 Slovakia              2930419
 9 Singapore             5703569
10 Sierra Leone          3319366
# ℹ 40 more rows

arrange juga bisa digunakan untuk melakukan pengurutan berdasarkan kriteria lebih dari satu kolom

country_data %>% 
  select(Country, Urban_population,`Official language`) %>% 
  filter(Urban_population > 1747593 & Urban_population <= 6084994) %>% 
  arrange(`Official language`,desc(Urban_population))

# A tibble: 50 × 3
   Country    Urban_population `Official language` 
   <chr>                 <dbl> <chr>               
 1 Lebanon             6084994 Arabic              
 2 Libya               5448597 Arabic              
 3 Oman                4250777 Arabic              
 4 Qatar               2809071 Arabic              
 5 Mauritania          2466821 Arabic              
 6 Armenia             1869848 Armenian            
 7 Azerbaijan          5616165 Azerbaijani language
 8 Bulgaria            5256027 Bulgarian           
 9 Croatia             2328318 Croatian            
10 Denmark             5119978 Danish              
# ℹ 40 more rows

Fungsi mutate

Fungsi mutate digunakan untuk membuat, memodifikasi dan menghapus kolom dari dataset.

Misal kita ingin membuat kolom baru yakni kolom bernama Persentase_urban_pop yang berasal dari rumus sebagai berikut

\[
\text{Persentase_urban_pop}= \left( \frac{\text{Urban_population}}{\text{Population}} \right) \times 100
\]

country_data %>% 
    mutate(Persentase_urban_pop= (Urban_population*100) / Population)

# A tibble: 195 × 36
   Country             `Density\n(P/Km2)` Abbreviation `Agricultural Land( %)`
   <chr>                            <dbl> <chr>        <chr>                  
 1 Afghanistan                         60 AF           58.10%                 
 2 Albania                            105 AL           43.10%                 
 3 Algeria                             18 DZ           17.40%                 
 4 Andorra                            164 AD           40.00%                 
 5 Angola                              26 AO           47.50%                 
 6 Antigua and Barbuda                223 AG           20.50%                 
 7 Argentina                           17 AR           54.30%                 
 8 Armenia                            104 AM           58.90%                 
 9 Australia                            3 AU           48.20%                 
10 Austria                            109 AT           32.40%                 
# ℹ 185 more rows
# ℹ 32 more variables: `Land Area(Km2)` <dbl>, `Armed Forces size` <dbl>,
#   `Birth Rate` <dbl>, `Calling Code` <dbl>, `Capital/Major City` <chr>,
#   `Co2-Emissions` <dbl>, CPI <dbl>, `CPI Change (%)` <chr>,
#   `Currency-Code` <chr>, `Fertility Rate` <dbl>, `Forested Area (%)` <chr>,
#   `Gasoline Price` <chr>, GDP <chr>,
#   `Gross primary education enrollment (%)` <chr>, …

karena agak sulit mengakses kolom barunya Persentase_urban_pop kita akan menyeleksi kolom-kolom yang berkepentingan

country_data %>% 
    mutate(Persentase_urban_pop= (Urban_population*100) / Population) %>% 
    select(Country,Persentase_urban_pop,Population)

# A tibble: 195 × 3
   Country             Persentase_urban_pop Population
   <chr>                              <dbl>      <dbl>
 1 Afghanistan                         25.8   38041754
 2 Albania                             61.2    2854191
 3 Algeria                             73.2   43053054
 4 Andorra                             88.0      77142
 5 Angola                              66.2   31825295
 6 Antigua and Barbuda                 24.5      97118
 7 Argentina                           92.0   44938712
 8 Armenia                             63.2    2957731
 9 Australia                           84.8   25766605
10 Austria                             58.5    8877067
# ℹ 185 more rows

Kemudian kita bisa menghapus kolom dengan mutate dengan sintaks dibawah ini

country_data %>% 
    mutate(Persentase_urban_pop= (Urban_population*100) / Population) %>% 
    select(Country,Persentase_urban_pop,Population) %>% 
    mutate(Country=NULL)

# A tibble: 195 × 2
   Persentase_urban_pop Population
                  <dbl>      <dbl>
 1                 25.8   38041754
 2                 61.2    2854191
 3                 73.2   43053054
 4                 88.0      77142
 5                 66.2   31825295
 6                 24.5      97118
 7                 92.0   44938712
 8                 63.2    2957731
 9                 84.8   25766605
10                 58.5    8877067
# ℹ 185 more rows

Ilustrasi selanjutnya adalah kita akan memodifikasi kolom yang sudah ada. Kolom Country kita modifikasi sedemikian sehingga nama negaranya jadi huruf kapital semua

country_data %>% 
  mutate(Country=str_to_upper(Country))

# A tibble: 195 × 35
   Country             `Density\n(P/Km2)` Abbreviation `Agricultural Land( %)`
   <chr>                            <dbl> <chr>        <chr>                  
 1 AFGHANISTAN                         60 AF           58.10%                 
 2 ALBANIA                            105 AL           43.10%                 
 3 ALGERIA                             18 DZ           17.40%                 
 4 ANDORRA                            164 AD           40.00%                 
 5 ANGOLA                              26 AO           47.50%                 
 6 ANTIGUA AND BARBUDA                223 AG           20.50%                 
 7 ARGENTINA                           17 AR           54.30%                 
 8 ARMENIA                            104 AM           58.90%                 
 9 AUSTRALIA                            3 AU           48.20%                 
10 AUSTRIA                            109 AT           32.40%                 
# ℹ 185 more rows
# ℹ 31 more variables: `Land Area(Km2)` <dbl>, `Armed Forces size` <dbl>,
#   `Birth Rate` <dbl>, `Calling Code` <dbl>, `Capital/Major City` <chr>,
#   `Co2-Emissions` <dbl>, CPI <dbl>, `CPI Change (%)` <chr>,
#   `Currency-Code` <chr>, `Fertility Rate` <dbl>, `Forested Area (%)` <chr>,
#   `Gasoline Price` <chr>, GDP <chr>,
#   `Gross primary education enrollment (%)` <chr>, …
…
Fungsi group_by digunakan untuk melakukan manipulasi atau perhitungan pada dataset berdasarkan grup atau kelompok tertentu. Grup atau kelompok yang dimaksud biasanya berupa kategori-kategori yang tersimpan dalam satu kolom. Dalam penggunaannya, group_by ini dipasangkan dengan fungsi summarize. Berikut adalah ilustrasinya

country_data %>%
  group_by(`Official language`) %>% 
  summarize(n())

# A tibble: 78 × 2
   `Official language`  `n()`
   <chr>                <int>
 1 Afrikaans                1
 2 Albanian                 1
 3 Amharic                  1
 4 Arabic                  18
 5 Armenian                 1
 6 Azerbaijani language     1
 7 Bengali                  1
 8 Bosnian                  1
 9 Bulgarian                1
10 Burmese                  1
# ℹ 68 more rows

Fungsi n() digunakan untuk menghitung frequensi dari suatu nilai atau kategori.

Sintaks diatas bisa ditulis dengan bentuk lain seperti dibawah ini

country_data %>%
  count(`Official language`)

# A tibble: 78 × 2
   `Official language`      n
   <chr>                <int>
 1 Afrikaans                1
 2 Albanian                 1
 3 Amharic                  1
 4 Arabic                  18
 5 Armenian                 1
 6 Azerbaijani language     1
 7 Bengali                  1
 8 Bosnian                  1
 9 Bulgarian                1
10 Burmese                  1
# ℹ 68 more rows

country_data %>% 
  mutate(pop_status = case_when(Population < 15000000 ~ "small",
                                Population >= 15000000 & Population < 39381164 ~ "medium",
                                Population >= 39381164  ~ "large"
                                )) %>% 
  count(pop_status,`Official language`)

# A tibble: 100 × 3
   pop_status `Official language`     n
   <chr>      <chr>               <int>
 1 large      Afrikaans               1
 2 large      Amharic                 1
 3 large      Arabic                  2
 4 large      Bengali                 1
 5 large      Burmese                 1
 6 large      English                 3
 7 large      French                  2
 8 large      German                  1
 9 large      Hindi                   1
10 large      Indonesian              1
# ℹ 90 more rows
…
Argument names_to berguna untuk membuat kolom untuk menaruh nama-nama kolom sebelum transformasi, sementara values_to berguna untuk membuat kolom untuk menaruh nilai-nilai data.

# bentuk long
country_data %>% 
  mutate(pop_status = case_when(Population < 15000000 ~ "small",
                                Population >= 15000000 & Population < 39381164 ~ "medium",
                                Population >= 39381164  ~ "large"
                                )) %>% 
  count(pop_status,`Official language`)

# A tibble: 100 × 3
   pop_status `Official language`     n
   <chr>      <chr>               <int>
 1 large      Afrikaans               1
 2 large      Amharic                 1
 3 large      Arabic                  2
 4 large      Bengali                 1
 5 large      Burmese                 1
 6 large      English                 3
 7 large      French                  2
 8 large      German                  1
 9 large      Hindi                   1
10 large      Indonesian              1
# ℹ 90 more rows

country_data %>% 
  mutate(pop_status = case_when(Population < 15000000 ~ "small",
                                Population >= 15000000 & Population < 39381164 ~ "medium",
                                Population >= 39381164  ~ "large"
                                )) %>% 
  count(pop_status,`Official language`) %>% 
  pivot_wider(id_cols = `Official language`,
              names_from = pop_status,
              values_from = n
              )

# A tibble: 78 × 5
   `Official language` large medium small  `NA`
   <chr>               <int>  <int> <int> <int>
 1 Afrikaans               1     NA    NA    NA
 2 Amharic                 1     NA    NA    NA
 3 Arabic                  2      6     9     1
 4 Bengali                 1     NA    NA    NA
 5 Burmese                 1     NA    NA    NA
 6 English                 3      3    25    NA
 7 French                  2      9    14    NA
 8 German                  1     NA     3    NA
 9 Hindi                   1     NA    NA    NA
10 Indonesian              1     NA    NA    NA
# ℹ 68 more rows
…
Ilustrasi-ilustrasi sebelumnya tidak menyimpan data hasil manipulasi kita dalam objek R sehingga tidak bisa digunakan secara berulang.

# tidak disimpan
country_data %>% 
  mutate(pop_status = case_when(Population < 15000000 ~ "small",
                                Population >= 15000000 & Population < 39381164 ~ "medium",
                                Population >= 39381164  ~ "large"
                                )) %>% 
  count(pop_status,`Official language`) %>% 
  pivot_wider(id_cols = `Official language`,
              names_from = pop_status,
              values_from = n
              )

# A tibble: 78 × 5
   `Official language` large medium small  `NA`
   <chr>               <int>  <int> <int> <int>
 1 Afrikaans               1     NA    NA    NA
 2 Amharic                 1     NA    NA    NA
 3 Arabic                  2      6     9     1
 4 Bengali                 1     NA    NA    NA
 5 Burmese                 1     NA    NA    NA
 6 English                 3      3    25    NA
 7 French                  2      9    14    NA
 8 German                  1     NA     3    NA
 9 Hindi                   1     NA    NA    NA
10 Indonesian              1     NA    NA    NA
# ℹ 68 more rows
…
kemudian jika kita ingin mengeluarkan hasil manipulasi data, hanya perlu menuliskan nama objeknya.

tabel_baru

# A tibble: 78 × 5
   `Official language` large medium small  `NA`
   <chr>               <int>  <int> <int> <int>
 1 Afrikaans               1     NA    NA    NA
 2 Amharic                 1     NA    NA    NA
 3 Arabic                  2      6     9     1
 4 Bengali                 1     NA    NA    NA
 5 Burmese                 1     NA    NA    NA
 6 English                 3      3    25    NA
 7 French                  2      9    14    NA
 8 German                  1     NA     3    NA
 9 Hindi                   1     NA    NA    NA
10 Indonesian              1     NA    NA    NA
# ℹ 68 more rows
…
