gerrydito - Analisis Faktorial RAL dengan R
…
Berdasarkan Duncan test, p-value B-A dan C-A lebih kecil dari 0.05, artinya ada perbedaan rata-rata Daya Tahan Baterai material A dan B; A dan C. Sementara itu, p-value C-B lebih besar dari 0.05, artinya tidak ada perbedaan rata-rata Daya Tahan Baterai material B dan C.

Suhu

Berdasarkan Duncan test, p-value 70-15, 125-15 dan 125-70 lebih kecil dari 0.05, artinya ada perbedaan rata-rata Daya Tahan Baterai Suhu 15 dan 70; 15 dan 125;70 dan 125.

Pemeriksaan Asumsi ANOVA

Pemeriksaan asumsi ANOVA dilakukan pada residual nya. Untuk mengeluarkan residualnya bisa menggunakan sintaks dibawah ini

aug1 <- augment(anova_bat)
aug1

# A tibble: 36 × 9
   DayaTahan Material Suhu  .fitted .resid  .hat .sigma .cooksd .std.resid
       <int> <fct>    <fct>   <dbl>  <dbl> <dbl>  <dbl>   <dbl>      <dbl>
 1       130 A        15      135.   -4.75 0.250   26.5 0.00165     -0.211
 2        34 A        70       57.3 -23.3  0.250   26.0 0.0395      -1.03 
 3        20 A        125      57.5 -37.5  0.250   25.1 0.103       -1.67 
 4        74 A        15      135.  -60.7  0.250   22.6 0.270       -2.70 
 5        80 A        70       57.3  22.7  0.250   26.0 0.0379       1.01 
 6        82 A        125      57.5  24.5  0.250   25.9 0.0439       1.09 
 7       155 A        15      135.   20.3  0.250   26.1 0.0300       0.900
 8        40 A        70       57.3 -17.3  0.25    26.2 0.0218      -0.767
 9        70 A        125      57.5  12.5  0.25    26.3 0.0114       0.555
10       180 A        15      135.   45.3  0.250   24.4 0.150        2.01 
# ℹ 26 more rows
…
